{
  "defaultSeverity": "warning",
  "extends": ["tslint-config-prettier"],
  "rules": {
    "adjacent-overload-signatures": true,
    "arrow-return-shorthand": true,
    "await-promise": true,
    "binary-expression-operand-order": true,
    "callable-types": true,
    "class-name": true,
    "cyclomatic-complexity": false,
    "eofline": true,
    "forin": true,
    "interface-name": { "options": ["never-prefix"] },
    "max-classes-per-file": false,
    "member-access": false,
    "new-parens": true,
    "no-angle-bracket-type-assertion": true,
    "no-any": false,
    "no-arg": true,
    "no-bitwise": true,
    "no-boolean-literal-compare": true,
    "no-conditional-assignment": true,
    "no-console": false,
    "no-construct": true,
    "no-duplicate-super": true,
    "no-duplicate-variable": true,
    "no-empty-interface": false,
    "no-empty": false,
    "no-eval": true,
    "no-floating-promises": true,
    "no-internal-module": true,
    "no-invalid-template-strings": true,
    "no-invalid-this": false,
    "no-misused-new": true,
    "no-namespace": true,
    "no-object-literal-type-assertion": true,
    "no-parameter-properties": true,
    "no-reference-import": true,
    "no-reference": true,
    "no-shadowed-variable": false,
    "no-sparse-arrays": true,
    "no-string-literal": true,
    "no-string-throw": true,
    "no-switch-case-fall-through": false,
    "no-this-assignment": true,
    "no-unbound-method": true,
    "no-unnecessary-callback-wrapper": true,
    "no-unnecessary-initializer": true,
    "no-unnecessary-qualifier": true,
    "no-unnecessary-type-assertion": true,
    "no-unsafe-finally": true,
    "no-var-keyword": true,
    "no-var-requires": true,
    "ordered-imports": false,
    "prefer-conditional-expression": true,
    "prefer-const": true,
    "prefer-for-of": true,
    "prefer-object-spread": true,
    "prefer-template": true,
    "radix": true,
    "restrict-plus-operands": true,
    "return-undefined": true,
    "strict-type-predicates": true,
    "trailing-comma": true,
    "triple-equals": { "options": ["allow-null-check"] },
    "type-literal-delimiter": false,
    "unified-signatures": true,
    "use-isnan": true,
    // disable this rule as it is very heavy performance-wise and not that useful
    "no-use-before-declare": false,
    "variable-name": {
      "options": ["ban-keywords", "check-format", "allow-pascal-case"]
    }
  }
}
